Journal (reproducible report)
…
# 2.0 Importing Files ----
bikes_tbl      <- read_excel(path = "~/GitHub/ws20-business-data-science-basics---lab-journal-shruthi-janardhan/data_science/DS_101/00_data/01_bike_sales/01_raw_data/bikes.xlsx")
orderlines_tbl <- read_excel("~/GitHub/ws20-business-data-science-basics---lab-journal-shruthi-janardhan/data_science/DS_101/00_data/01_bike_sales/01_raw_data/orderlines.xlsx")

# Not necessary for this analysis, but for the sake of completeness
bikeshops_tbl  <- read_excel("~/GitHub/ws20-business-data-science-basics---lab-journal-shruthi-janardhan/data_science/DS_101/00_data/01_bike_sales/01_raw_data/bikeshops.xlsx")

# 3.0 Examining Data ----
#orderlines_tbl
#glimpse(orderlines_tbl)
# 4.0 Joining Data ----
left_join(orderlines_tbl, bikes_tbl, by = c("product.id" = "bike.id"))

## # A tibble: 15,644 x 15
##    ...1  order.id order.line order.date          customer.id product.id quantity
##    <chr>    <dbl>      <dbl> <dttm>                    <dbl>      <dbl>    <dbl>
##  1 1            1          1 2015-01-07 00:00:00           2       2681        1
##  2 2            1          2 2015-01-07 00:00:00           2       2411        1
##  3 3            2          1 2015-01-10 00:00:00          10       2629        1
##  4 4            2          2 2015-01-10 00:00:00          10       2137        1
##  5 5            3          1 2015-01-10 00:00:00           6       2367        1
##  6 6            3          2 2015-01-10 00:00:00           6       1973        1
##  7 7            3          3 2015-01-10 00:00:00           6       2422        1
##  8 8            3          4 2015-01-10 00:00:00           6       2655        1
##  9 9            3          5 2015-01-10 00:00:00           6       2247        1
## 10 10           4          1 2015-01-11 00:00:00          22       2408        1
## # ... with 15,634 more rows, and 8 more variables: model <chr>,
## #   model.year <dbl>, frame.material <chr>, weight <dbl>, price <dbl>,
## #   category <chr>, gender <chr>, url <chr>
…
  # 5.4 Rename columns because we actually wanted underscores instead of the dots
  # (one at the time vs. multiple at once)
  rename(bikeshop = name) %>%
  set_names(names(.) %>% str_replace_all("\\.", "_"))

# 6.0 Business Insights ----
bike_orderlines_wrangled_tb2 <-bike_orderlines_wrangled_tbl %>%
  # 5.1 Separate category name
  separate(col    = location,
           into   = c("city", "state"),
           sep    = ",") 
  
bike_orderlines_wrangled_tb2

## # A tibble: 15,644 x 19
##    order_id order_line order_date          model model_year category_1
##       <dbl>      <dbl> <dttm>              <chr>      <dbl> <chr>     
##  1        1          1 2015-01-07 00:00:00 Spec~       2021 Mountain  
##  2        1          2 2015-01-07 00:00:00 Ulti~       2020 Road      
##  3        2          1 2015-01-10 00:00:00 Neur~       2021 Mountain  
##  4        2          2 2015-01-10 00:00:00 Spee~       2019 Road      
##  5        3          1 2015-01-10 00:00:00 Stit~       2020 Mountain  
##  6        3          2 2015-01-10 00:00:00 Road~       2020 Hybrid / ~
##  7        3          3 2015-01-10 00:00:00 Spee~       2020 Road      
##  8        3          4 2015-01-10 00:00:00 Infl~       2021 Road      
##  9        3          5 2015-01-10 00:00:00 Torq~       2020 Mountain  
## 10        4          1 2015-01-11 00:00:00 Ulti~       2020 Road      
## # ... with 15,634 more rows, and 13 more variables: category_2 <chr>,
## #   category_3 <chr>, price <dbl>, quantity <dbl>, total_price <dbl>,
## #   frame_material <chr>, weight <dbl>, url <chr>, bikeshop <chr>, city <chr>,
## #   state <chr>, lat <dbl>, lng <dbl>
…
  # Group by and summarize year and main catgegory
  group_by(year, state) %>%
  summarise(sales = sum(total_price)) %>%
  ungroup() %>%
  
  # Format $ Text
  mutate(sales_text = scales::dollar(sales, big.mark = ".", 
                                     decimal.mark = ",", 
                                     prefix = "", 
                                     suffix = " €"))

sales_by_year_state_tbl  

## # A tibble: 60 x 4
##     year state                              sales sales_text 
##    <dbl> <chr>                              <dbl> <chr>      
##  1  2015 " Baden-Württemberg"             1031924 1.031.924 €
##  2  2015 " Bavaria"                       1301461 1.301.461 €
##  3  2015 " Berlin"                          95853 95.853 €   
##  4  2015 " Bremen"                        1395912 1.395.912 €
##  5  2015 " Hamburg"                        423090 423.090 €  
##  6  2015 " Hesse"                          308609 308.609 €  
##  7  2015 " Lower Saxony"                   584386 584.386 €  
##  8  2015 " Mecklenburg-Western Pomerania"  222003 222.003 €  
##  9  2015 " North Rhine-Westphalia"        3735092 3.735.092 €
## 10  2015 " Saxony"                         238371 238.371 €  
## # ... with 50 more rows
…
